%!PS-Adobe-3.0
%%Creator: PCBNEW
%%CreationDate: Sun Mar 27 16:05:09 2022
%%Title: ()
%%Pages: 1
%%PageOrder: Ascend
%%BoundingBox: 0 0 596 842
%%DocumentMedia: A4 595 842 0 () ()
%%Orientation: Landscape
%%EndComments
%%BeginProlog
/line { newpath moveto lineto stroke } bind def
/cir0 { newpath 0 360 arc stroke } bind def
/cir1 { newpath 0 360 arc gsave fill grestore stroke } bind def
/cir2 { newpath 0 360 arc gsave fill grestore stroke } bind def
/arc0 { newpath arc stroke } bind def
/arc1 { newpath 4 index 4 index moveto arc closepath gsave fill
    grestore stroke } bind def
/arc2 { newpath 4 index 4 index moveto arc closepath gsave fill
    grestore stroke } bind def
/poly0 { stroke } bind def
/poly1 { closepath gsave fill grestore stroke } bind def
/poly2 { closepath gsave fill grestore stroke } bind def
/rect0 { rectstroke } bind def
/rect1 { rectfill } bind def
/rect2 { rectfill } bind def
/linemode0 { 0 setlinecap 0 setlinejoin 0 setlinewidth } bind def
/linemode1 { 1 setlinecap 1 setlinejoin } bind def
/dashedline { [200] 100 setdash } bind def
/solidline { [] 0 setdash } bind def
/phantomshow { moveto
    /KicadFont findfont 0.000001 scalefont setfont
    show } bind def
/textshow { gsave
    findfont exch scalefont setfont concat 1 scale 0 0 moveto show
    } bind def
/reencodefont {
  findfont dup length dict begin
  { 1 index /FID ne
    { def }
    { pop pop } ifelse
  } forall
  /Encoding ISOLatin1Encoding def
  currentdict
  end } bind def
/KicadFont /Helvetica reencodefont definefont pop
/KicadFont-Bold /Helvetica-Bold reencodefont definefont pop
/KicadFont-Oblique /Helvetica-Oblique reencodefont definefont pop
/KicadFont-BoldOblique /Helvetica-BoldOblique reencodefont definefont pop
%%EndProlog
%%Page: 1 1
%%BeginPageSetup
gsave
0.0072 0.0072 scale
linemode1
82680 0 translate 90 rotate
202.532 setlinewidth
%%EndPageSetup
0 0 0 setrgbcolor
101.266 setlinewidth
26566.2 79648.2 1012.66 -270 -180 arc0
0 0 0 setrgbcolor
90363.8 36103.8 1012.66 -90.0001 5.72958e-05 arc0
0 0 0 setrgbcolor
newpath
26566.2 35091.1 moveto
90363.8 35091.1 lineto
stroke
0 0 0 setrgbcolor
newpath
25553.5 79648.2 moveto
25553.5 36103.8 lineto
stroke
0 0 0 setrgbcolor
newpath
91376.5 36103.8 moveto
91376.5 79648.2 lineto
stroke
0 0 0 setrgbcolor
26566.2 36103.8 1012.66 -180 -89.9999 arc0
0 0 0 setrgbcolor
newpath
90363.8 80660.9 moveto
26566.2 80660.9 lineto
stroke
0 0 0 setrgbcolor
90363.8 79648.2 1012.66 -5.72958e-05 90.0001 arc0
202.532 setlinewidth
273.418 setlinewidth
newpath
86971.4 78990 moveto
89705.6 76255.8 lineto
stroke
newpath
89705.6 78990 moveto
86971.4 76255.8 lineto
stroke
newpath
86971.4 39496.2 moveto
89705.6 36762 lineto
stroke
newpath
89705.6 39496.2 moveto
86971.4 36762 lineto
stroke
202.532 setlinewidth
78.7404 setlinewidth
0 0 0 setrgbcolor
0 0 0 setrgbcolor
newpath
26517.1 33818.2 moveto
26517.1 34605.6 lineto
26704.6 34605.6 lineto
26817.1 34568.1 lineto
26892.1 34493.1 lineto
26929.6 34418.1 lineto
26967.1 34268.1 lineto
26967.1 34155.6 lineto
26929.6 34005.6 lineto
26892.1 33930.6 lineto
26817.1 33855.7 lineto
26704.6 33818.2 lineto
26517.1 33818.2 lineto
stroke
newpath
27304.5 33818.2 moveto
27304.5 34343.1 lineto
stroke
newpath
27304.5 34193.1 moveto
27342 34268.1 lineto
27379.5 34305.6 lineto
27454.5 34343.1 lineto
27529.5 34343.1 lineto
stroke
newpath
27792 33818.2 moveto
27792 34343.1 lineto
stroke
newpath
27792 34605.6 moveto
27754.5 34568.1 lineto
27792 34530.6 lineto
27829.5 34568.1 lineto
27792 34605.6 lineto
27792 34530.6 lineto
stroke
newpath
28279.4 33818.2 moveto
28204.4 33855.7 lineto
28166.9 33930.6 lineto
28166.9 34605.6 lineto
stroke
newpath
28691.9 33818.2 moveto
28616.9 33855.7 lineto
28579.4 33930.6 lineto
28579.4 34605.6 lineto
stroke
newpath
29591.8 33818.2 moveto
29591.8 34605.6 lineto
29854.2 34043.1 lineto
30116.7 34605.6 lineto
30116.7 33818.2 lineto
stroke
newpath
30829.1 33818.2 moveto
30829.1 34230.6 lineto
30791.6 34305.6 lineto
30716.6 34343.1 lineto
30566.6 34343.1 lineto
30491.6 34305.6 lineto
stroke
newpath
30829.1 33855.7 moveto
30754.1 33818.2 lineto
30566.6 33818.2 lineto
30491.6 33855.7 lineto
30454.2 33930.6 lineto
30454.2 34005.6 lineto
30491.6 34080.6 lineto
30566.6 34118.1 lineto
30754.1 34118.1 lineto
30829.1 34155.6 lineto
stroke
newpath
31204.1 34343.1 moveto
31204.1 33555.7 lineto
stroke
newpath
31204.1 34305.6 moveto
31279 34343.1 lineto
31429 34343.1 lineto
31504 34305.6 lineto
31541.5 34268.1 lineto
31579 34193.1 lineto
31579 33968.1 lineto
31541.5 33893.1 lineto
31504 33855.7 lineto
31429 33818.2 lineto
31279 33818.2 lineto
31204.1 33855.7 lineto
stroke
newpath
31916.5 33893.1 moveto
31954 33855.7 lineto
31916.5 33818.2 lineto
31879 33855.7 lineto
31916.5 33893.1 lineto
31916.5 33818.2 lineto
stroke
newpath
31916.5 34305.6 moveto
31954 34268.1 lineto
31916.5 34230.6 lineto
31879 34268.1 lineto
31916.5 34305.6 lineto
31916.5 34230.6 lineto
stroke
78.7394 setlinewidth
newpath
24715.5 32914.5 moveto
25502.9 32127.1 lineto
stroke
newpath
25502.9 32914.5 moveto
24715.5 32127.1 lineto
stroke
202.532 setlinewidth
78.7404 setlinewidth
0 0 0 setrgbcolor
0 0 0 setrgbcolor
newpath
26479.7 32877 moveto
26517.1 32914.5 lineto
26592.1 32952 lineto
26779.6 32952 lineto
26854.6 32914.5 lineto
26892.1 32877 lineto
26929.6 32802 lineto
26929.6 32727 lineto
26892.1 32614.6 lineto
26442.2 32164.6 lineto
26929.6 32164.6 lineto
stroke
newpath
27267.1 32239.6 moveto
27304.5 32202.1 lineto
27267.1 32164.6 lineto
27229.6 32202.1 lineto
27267.1 32239.6 lineto
27267.1 32164.6 lineto
stroke
newpath
27567 32952 moveto
28091.9 32952 lineto
27754.5 32164.6 lineto
stroke
newpath
28541.9 32952 moveto
28616.9 32952 lineto
28691.9 32914.5 lineto
28729.4 32877 lineto
28766.9 32802 lineto
28804.4 32652.1 lineto
28804.4 32464.6 lineto
28766.9 32314.6 lineto
28729.4 32239.6 lineto
28691.9 32202.1 lineto
28616.9 32164.6 lineto
28541.9 32164.6 lineto
28466.9 32202.1 lineto
28429.4 32239.6 lineto
28391.9 32314.6 lineto
28354.4 32464.6 lineto
28354.4 32652.1 lineto
28391.9 32802 lineto
28429.4 32877 lineto
28466.9 32914.5 lineto
28541.9 32952 lineto
stroke
newpath
29291.8 32952 moveto
29366.8 32952 lineto
29441.8 32914.5 lineto
29479.3 32877 lineto
29516.8 32802 lineto
29554.3 32652.1 lineto
29554.3 32464.6 lineto
29516.8 32314.6 lineto
29479.3 32239.6 lineto
29441.8 32202.1 lineto
29366.8 32164.6 lineto
29291.8 32164.6 lineto
29216.8 32202.1 lineto
29179.3 32239.6 lineto
29141.8 32314.6 lineto
29104.3 32464.6 lineto
29104.3 32652.1 lineto
29141.8 32802 lineto
29179.3 32877 lineto
29216.8 32914.5 lineto
29291.8 32952 lineto
stroke
newpath
29891.7 32164.6 moveto
29891.7 32689.5 lineto
stroke
newpath
29891.7 32614.6 moveto
29929.2 32652.1 lineto
30004.2 32689.5 lineto
30116.7 32689.5 lineto
30191.7 32652.1 lineto
30229.2 32577.1 lineto
30229.2 32164.6 lineto
stroke
newpath
30229.2 32577.1 moveto
30266.7 32652.1 lineto
30341.7 32689.5 lineto
30454.2 32689.5 lineto
30529.1 32652.1 lineto
30566.6 32577.1 lineto
30566.6 32164.6 lineto
stroke
newpath
30941.6 32164.6 moveto
30941.6 32689.5 lineto
stroke
newpath
30941.6 32614.6 moveto
30979.1 32652.1 lineto
31054.1 32689.5 lineto
31166.6 32689.5 lineto
31241.6 32652.1 lineto
31279 32577.1 lineto
31279 32164.6 lineto
stroke
newpath
31279 32577.1 moveto
31316.5 32652.1 lineto
31391.5 32689.5 lineto
31504 32689.5 lineto
31579 32652.1 lineto
31616.5 32577.1 lineto
31616.5 32164.6 lineto
stroke
newpath
33153.8 32989.5 moveto
32478.9 31977.1 lineto
stroke
newpath
34166.2 32952 moveto
34241.2 32952 lineto
34316.2 32914.5 lineto
34353.7 32877 lineto
34391.2 32802 lineto
34428.7 32652.1 lineto
34428.7 32464.6 lineto
34391.2 32314.6 lineto
34353.7 32239.6 lineto
34316.2 32202.1 lineto
34241.2 32164.6 lineto
34166.2 32164.6 lineto
34091.2 32202.1 lineto
34053.7 32239.6 lineto
34016.2 32314.6 lineto
33978.7 32464.6 lineto
33978.7 32652.1 lineto
34016.2 32802 lineto
34053.7 32877 lineto
34091.2 32914.5 lineto
34166.2 32952 lineto
stroke
newpath
34766.1 32239.6 moveto
34803.6 32202.1 lineto
34766.1 32164.6 lineto
34728.6 32202.1 lineto
34766.1 32239.6 lineto
34766.1 32164.6 lineto
stroke
newpath
35553.5 32164.6 moveto
35103.6 32164.6 lineto
stroke
newpath
35328.5 32164.6 moveto
35328.5 32952 lineto
35253.6 32839.5 lineto
35178.6 32764.5 lineto
35103.6 32727 lineto
stroke
newpath
36041 32952 moveto
36115.9 32952 lineto
36190.9 32914.5 lineto
36228.4 32877 lineto
36265.9 32802 lineto
36303.4 32652.1 lineto
36303.4 32464.6 lineto
36265.9 32314.6 lineto
36228.4 32239.6 lineto
36190.9 32202.1 lineto
36115.9 32164.6 lineto
36041 32164.6 lineto
35966 32202.1 lineto
35928.5 32239.6 lineto
35891 32314.6 lineto
35853.5 32464.6 lineto
35853.5 32652.1 lineto
35891 32802 lineto
35928.5 32877 lineto
35966 32914.5 lineto
36041 32952 lineto
stroke
newpath
36978.3 32952 moveto
36828.4 32952 lineto
36753.4 32914.5 lineto
36715.9 32877 lineto
36640.9 32764.5 lineto
36603.4 32614.6 lineto
36603.4 32314.6 lineto
36640.9 32239.6 lineto
36678.4 32202.1 lineto
36753.4 32164.6 lineto
36903.3 32164.6 lineto
36978.3 32202.1 lineto
37015.8 32239.6 lineto
37053.3 32314.6 lineto
37053.3 32502.1 lineto
37015.8 32577.1 lineto
36978.3 32614.6 lineto
36903.3 32652.1 lineto
36753.4 32652.1 lineto
36678.4 32614.6 lineto
36640.9 32577.1 lineto
36603.4 32502.1 lineto
stroke
newpath
37315.8 32952 moveto
37803.2 32952 lineto
37540.8 32652.1 lineto
37653.2 32652.1 lineto
37728.2 32614.6 lineto
37765.7 32577.1 lineto
37803.2 32502.1 lineto
37803.2 32314.6 lineto
37765.7 32239.6 lineto
37728.2 32202.1 lineto
37653.2 32164.6 lineto
37428.3 32164.6 lineto
37353.3 32202.1 lineto
37315.8 32239.6 lineto
stroke
newpath
38103.2 32952 moveto
38103.2 32802 lineto
stroke
newpath
38403.2 32952 moveto
38403.2 32802 lineto
stroke
newpath
39565.5 31864.7 moveto
39528 31902.1 lineto
39453 32014.6 lineto
39415.5 32089.6 lineto
39378 32202.1 lineto
39340.5 32389.6 lineto
39340.5 32539.6 lineto
39378 32727 lineto
39415.5 32839.5 lineto
39453 32914.5 lineto
39528 33027 lineto
39565.5 33064.5 lineto
stroke
newpath
39828 32877 moveto
39865.5 32914.5 lineto
39940.5 32952 lineto
40127.9 32952 lineto
40202.9 32914.5 lineto
40240.4 32877 lineto
40277.9 32802 lineto
40277.9 32727 lineto
40240.4 32614.6 lineto
39790.5 32164.6 lineto
40277.9 32164.6 lineto
stroke
newpath
41215.3 32164.6 moveto
41215.3 32952 lineto
stroke
newpath
41552.8 32164.6 moveto
41552.8 32577.1 lineto
41515.3 32652.1 lineto
41440.3 32689.5 lineto
41327.8 32689.5 lineto
41252.8 32652.1 lineto
41215.3 32614.6 lineto
stroke
newpath
42040.2 32164.6 moveto
41965.2 32202.1 lineto
41927.7 32239.6 lineto
41890.2 32314.6 lineto
41890.2 32539.6 lineto
41927.7 32614.6 lineto
41965.2 32652.1 lineto
42040.2 32689.5 lineto
42152.7 32689.5 lineto
42227.7 32652.1 lineto
42265.2 32614.6 lineto
42302.7 32539.6 lineto
42302.7 32314.6 lineto
42265.2 32239.6 lineto
42227.7 32202.1 lineto
42152.7 32164.6 lineto
42040.2 32164.6 lineto
stroke
newpath
42752.6 32164.6 moveto
42677.6 32202.1 lineto
42640.1 32277.1 lineto
42640.1 32952 lineto
stroke
newpath
43352.5 32202.1 moveto
43277.5 32164.6 lineto
43127.6 32164.6 lineto
43052.6 32202.1 lineto
43015.1 32277.1 lineto
43015.1 32577.1 lineto
43052.6 32652.1 lineto
43127.6 32689.5 lineto
43277.5 32689.5 lineto
43352.5 32652.1 lineto
43390 32577.1 lineto
43390 32502.1 lineto
43015.1 32427.1 lineto
stroke
newpath
43690 32202.1 moveto
43765 32164.6 lineto
43915 32164.6 lineto
43990 32202.1 lineto
44027.5 32277.1 lineto
44027.5 32314.6 lineto
43990 32389.6 lineto
43915 32427.1 lineto
43802.5 32427.1 lineto
43727.5 32464.6 lineto
43690 32539.6 lineto
43690 32577.1 lineto
43727.5 32652.1 lineto
43802.5 32689.5 lineto
43915 32689.5 lineto
43990 32652.1 lineto
stroke
newpath
44289.9 31864.7 moveto
44327.4 31902.1 lineto
44402.4 32014.6 lineto
44439.9 32089.6 lineto
44477.4 32202.1 lineto
44514.9 32389.6 lineto
44514.9 32539.6 lineto
44477.4 32727 lineto
44439.9 32839.5 lineto
44402.4 32914.5 lineto
44327.4 33027 lineto
44289.9 33064.5 lineto
stroke
newpath
45714.7 31864.7 moveto
45677.2 31902.1 lineto
45602.3 32014.6 lineto
45564.8 32089.6 lineto
45527.3 32202.1 lineto
45489.8 32389.6 lineto
45489.8 32539.6 lineto
45527.3 32727 lineto
45564.8 32839.5 lineto
45602.3 32914.5 lineto
45677.2 33027 lineto
45714.7 33064.5 lineto
stroke
newpath
46014.7 32689.5 moveto
46014.7 32164.6 lineto
stroke
newpath
46014.7 32614.6 moveto
46052.2 32652.1 lineto
46127.2 32689.5 lineto
46239.7 32689.5 lineto
46314.7 32652.1 lineto
46352.2 32577.1 lineto
46352.2 32164.6 lineto
stroke
newpath
46839.6 32164.6 moveto
46764.6 32202.1 lineto
46727.1 32239.6 lineto
46689.6 32314.6 lineto
46689.6 32539.6 lineto
46727.1 32614.6 lineto
46764.6 32652.1 lineto
46839.6 32689.5 lineto
46952.1 32689.5 lineto
47027.1 32652.1 lineto
47064.6 32614.6 lineto
47102.1 32539.6 lineto
47102.1 32314.6 lineto
47064.6 32239.6 lineto
47027.1 32202.1 lineto
46952.1 32164.6 lineto
46839.6 32164.6 lineto
stroke
newpath
47327 32689.5 moveto
47627 32689.5 lineto
stroke
newpath
47439.5 32952 moveto
47439.5 32277.1 lineto
47477 32202.1 lineto
47552 32164.6 lineto
47627 32164.6 lineto
stroke
newpath
48489.4 32689.5 moveto
48489.4 31902.1 lineto
stroke
newpath
48489.4 32652.1 moveto
48564.4 32689.5 lineto
48714.4 32689.5 lineto
48789.4 32652.1 lineto
48826.8 32614.6 lineto
48864.3 32539.6 lineto
48864.3 32314.6 lineto
48826.8 32239.6 lineto
48789.4 32202.1 lineto
48714.4 32164.6 lineto
48564.4 32164.6 lineto
48489.4 32202.1 lineto
stroke
newpath
49314.3 32164.6 moveto
49239.3 32202.1 lineto
49201.8 32277.1 lineto
49201.8 32952 lineto
stroke
newpath
49951.7 32164.6 moveto
49951.7 32577.1 lineto
49914.2 32652.1 lineto
49839.2 32689.5 lineto
49689.2 32689.5 lineto
49614.3 32652.1 lineto
stroke
newpath
49951.7 32202.1 moveto
49876.7 32164.6 lineto
49689.2 32164.6 lineto
49614.3 32202.1 lineto
49576.8 32277.1 lineto
49576.8 32352.1 lineto
49614.3 32427.1 lineto
49689.2 32464.6 lineto
49876.7 32464.6 lineto
49951.7 32502.1 lineto
stroke
newpath
50214.2 32689.5 moveto
50514.1 32689.5 lineto
stroke
newpath
50326.7 32952 moveto
50326.7 32277.1 lineto
50364.2 32202.1 lineto
50439.1 32164.6 lineto
50514.1 32164.6 lineto
stroke
newpath
51076.6 32202.1 moveto
51001.6 32164.6 lineto
50851.6 32164.6 lineto
50776.6 32202.1 lineto
50739.1 32277.1 lineto
50739.1 32577.1 lineto
50776.6 32652.1 lineto
50851.6 32689.5 lineto
51001.6 32689.5 lineto
51076.6 32652.1 lineto
51114.1 32577.1 lineto
51114.1 32502.1 lineto
50739.1 32427.1 lineto
stroke
newpath
51789 32164.6 moveto
51789 32952 lineto
stroke
newpath
51789 32202.1 moveto
51714 32164.6 lineto
51564 32164.6 lineto
51489 32202.1 lineto
51451.5 32239.6 lineto
51414 32314.6 lineto
51414 32539.6 lineto
51451.5 32614.6 lineto
51489 32652.1 lineto
51564 32689.5 lineto
51714 32689.5 lineto
51789 32652.1 lineto
stroke
newpath
52088.9 31864.7 moveto
52126.4 31902.1 lineto
52201.4 32014.6 lineto
52238.9 32089.6 lineto
52276.4 32202.1 lineto
52313.9 32389.6 lineto
52313.9 32539.6 lineto
52276.4 32727 lineto
52238.9 32839.5 lineto
52201.4 32914.5 lineto
52126.4 33027 lineto
52088.9 33064.5 lineto
stroke
showpage
grestore
%%EOF
