%!PS-Adobe-3.0
%%Creator: PCBNEW
%%CreationDate: Sun Mar 27 16:05:09 2022
%%Title: ()
%%Pages: 1
%%PageOrder: Ascend
%%BoundingBox: 0 0 596 842
%%DocumentMedia: A4 595 842 0 () ()
%%Orientation: Landscape
%%EndComments
%%BeginProlog
/line { newpath moveto lineto stroke } bind def
/cir0 { newpath 0 360 arc stroke } bind def
/cir1 { newpath 0 360 arc gsave fill grestore stroke } bind def
/cir2 { newpath 0 360 arc gsave fill grestore stroke } bind def
/arc0 { newpath arc stroke } bind def
/arc1 { newpath 4 index 4 index moveto arc closepath gsave fill
    grestore stroke } bind def
/arc2 { newpath 4 index 4 index moveto arc closepath gsave fill
    grestore stroke } bind def
/poly0 { stroke } bind def
/poly1 { closepath gsave fill grestore stroke } bind def
/poly2 { closepath gsave fill grestore stroke } bind def
/rect0 { rectstroke } bind def
/rect1 { rectfill } bind def
/rect2 { rectfill } bind def
/linemode0 { 0 setlinecap 0 setlinejoin 0 setlinewidth } bind def
/linemode1 { 1 setlinecap 1 setlinejoin } bind def
/dashedline { [200] 100 setdash } bind def
/solidline { [] 0 setdash } bind def
/phantomshow { moveto
    /KicadFont findfont 0.000001 scalefont setfont
    show } bind def
/textshow { gsave
    findfont exch scalefont setfont concat 1 scale 0 0 moveto show
    } bind def
/reencodefont {
  findfont dup length dict begin
  { 1 index /FID ne
    { def }
    { pop pop } ifelse
  } forall
  /Encoding ISOLatin1Encoding def
  currentdict
  end } bind def
/KicadFont /Helvetica reencodefont definefont pop
/KicadFont-Bold /Helvetica-Bold reencodefont definefont pop
/KicadFont-Oblique /Helvetica-Oblique reencodefont definefont pop
/KicadFont-BoldOblique /Helvetica-BoldOblique reencodefont definefont pop
%%EndProlog
%%Page: 1 1
%%BeginPageSetup
gsave
0.0072 0.0072 scale
linemode1
82680 0 translate 90 rotate
202.532 setlinewidth
%%EndPageSetup
0 0 0 setrgbcolor
101.266 setlinewidth
26566.2 79648.2 1012.66 -270 -180 arc0
0 0 0 setrgbcolor
90363.8 36103.8 1012.66 -90.0001 5.72958e-05 arc0
0 0 0 setrgbcolor
newpath
26566.2 35091.1 moveto
90363.8 35091.1 lineto
stroke
0 0 0 setrgbcolor
newpath
25553.5 79648.2 moveto
25553.5 36103.8 lineto
stroke
0 0 0 setrgbcolor
newpath
91376.5 36103.8 moveto
91376.5 79648.2 lineto
stroke
0 0 0 setrgbcolor
26566.2 36103.8 1012.66 -180 -89.9999 arc0
0 0 0 setrgbcolor
newpath
90363.8 80660.9 moveto
26566.2 80660.9 lineto
stroke
0 0 0 setrgbcolor
90363.8 79648.2 1012.66 -5.72958e-05 90.0001 arc0
202.532 setlinewidth
40.5064 setlinewidth
newpath
27072.5 38534.2 moveto
27477.6 38129.1 lineto
stroke
newpath
27477.6 38534.2 moveto
27072.5 38129.1 lineto
stroke
newpath
27072.5 37622.8 moveto
27477.6 37217.7 lineto
stroke
newpath
27477.6 37622.8 moveto
27072.5 37217.7 lineto
stroke
newpath
27376.3 73774.8 moveto
27781.4 73369.7 lineto
stroke
newpath
27781.4 73774.8 moveto
27376.3 73369.7 lineto
stroke
newpath
30414.3 73774.8 moveto
30819.4 73369.7 lineto
stroke
newpath
30819.4 73774.8 moveto
30414.3 73369.7 lineto
stroke
newpath
34464.9 60610.2 moveto
34870 60205.1 lineto
stroke
newpath
34870 60610.2 moveto
34464.9 60205.1 lineto
stroke
newpath
39427 57420.3 moveto
39832 57015.2 lineto
stroke
newpath
39832 57420.3 moveto
39427 57015.2 lineto
stroke
newpath
39528.2 67698.8 moveto
39933.3 67293.7 lineto
stroke
newpath
39933.3 67698.8 moveto
39528.2 67293.7 lineto
stroke
newpath
41553.6 68711.5 moveto
41958.6 68306.4 lineto
stroke
newpath
41958.6 68711.5 moveto
41553.6 68306.4 lineto
stroke
newpath
42059.9 57319 moveto
42465 56914 lineto
stroke
newpath
42465 57319 moveto
42059.9 56914 lineto
stroke
newpath
42900.4 69602.6 moveto
43305.5 69197.5 lineto
stroke
newpath
43305.5 69602.6 moveto
42900.4 69197.5 lineto
stroke
newpath
44591.5 57319 moveto
44996.6 56914 lineto
stroke
newpath
44996.6 57319 moveto
44591.5 56914 lineto
stroke
newpath
46059.9 58787.4 moveto
46465 58382.3 lineto
stroke
newpath
46465 58787.4 moveto
46059.9 58382.3 lineto
stroke
newpath
46110.5 62534.2 moveto
46515.6 62129.2 lineto
stroke
newpath
46515.6 62534.2 moveto
46110.5 62129.2 lineto
stroke
newpath
46920.7 64559.6 moveto
47325.7 64154.5 lineto
stroke
newpath
47325.7 64559.6 moveto
46920.7 64154.5 lineto
stroke
newpath
47173.8 57319 moveto
47578.9 56914 lineto
stroke
newpath
47578.9 57319 moveto
47173.8 56914 lineto
stroke
newpath
47872.6 69633 moveto
48277.6 69227.9 lineto
stroke
newpath
48277.6 69633 moveto
47872.6 69227.9 lineto
stroke
newpath
48642.2 67698.8 moveto
49047.3 67293.7 lineto
stroke
newpath
49047.3 67698.8 moveto
48642.2 67293.7 lineto
stroke
newpath
49401.7 65673.5 moveto
49806.8 65268.4 lineto
stroke
newpath
49806.8 65673.5 moveto
49401.7 65268.4 lineto
stroke
newpath
51011.8 62341.8 moveto
51416.9 61936.8 lineto
stroke
newpath
51416.9 62341.8 moveto
51011.8 61936.8 lineto
stroke
newpath
51011.8 42655.7 moveto
51416.9 42250.6 lineto
stroke
newpath
51416.9 42655.7 moveto
51011.8 42250.6 lineto
stroke
newpath
51097.9 65673.5 moveto
51503 65268.4 lineto
stroke
newpath
51503 65673.5 moveto
51097.9 65268.4 lineto
stroke
newpath
54718.2 78838.1 moveto
55123.2 78433 lineto
stroke
newpath
55123.2 78838.1 moveto
54718.2 78433 lineto
stroke
newpath
56743.5 78838.1 moveto
57148.5 78433 lineto
stroke
newpath
57148.5 78838.1 moveto
56743.5 78433 lineto
stroke
newpath
58768.8 78838.1 moveto
59173.9 78433 lineto
stroke
newpath
59173.9 78838.1 moveto
58768.8 78433 lineto
stroke
newpath
60794.1 78838.1 moveto
61199.2 78433 lineto
stroke
newpath
61199.2 78838.1 moveto
60794.1 78433 lineto
stroke
newpath
62819.4 78838.1 moveto
63224.5 78433 lineto
stroke
newpath
63224.5 78838.1 moveto
62819.4 78433 lineto
stroke
newpath
64844.8 78838.1 moveto
65249.8 78433 lineto
stroke
newpath
65249.8 78838.1 moveto
64844.8 78433 lineto
stroke
newpath
66870.1 78838.1 moveto
67275.1 78433 lineto
stroke
newpath
67275.1 78838.1 moveto
66870.1 78433 lineto
stroke
newpath
68895.4 78838.1 moveto
69300.5 78433 lineto
stroke
newpath
69300.5 78838.1 moveto
68895.4 78433 lineto
stroke
newpath
70920.7 78838.1 moveto
71325.8 78433 lineto
stroke
newpath
71325.8 78838.1 moveto
70920.7 78433 lineto
stroke
newpath
72946 78838.1 moveto
73351.1 78433 lineto
stroke
newpath
73351.1 78838.1 moveto
72946 78433 lineto
stroke
newpath
74971.4 78838.1 moveto
75376.4 78433 lineto
stroke
newpath
75376.4 78838.1 moveto
74971.4 78433 lineto
stroke
newpath
76996.7 78838.1 moveto
77401.8 78433 lineto
stroke
newpath
77401.8 78838.1 moveto
76996.7 78433 lineto
stroke
newpath
79022 78838.1 moveto
79427.1 78433 lineto
stroke
newpath
79427.1 78838.1 moveto
79022 78433 lineto
stroke
newpath
81047.3 78838.1 moveto
81452.4 78433 lineto
stroke
newpath
81452.4 78838.1 moveto
81047.3 78433 lineto
stroke
newpath
83072.7 78838.1 moveto
83477.7 78433 lineto
stroke
newpath
83477.7 78838.1 moveto
83072.7 78433 lineto
stroke
newpath
85098 78838.1 moveto
85503 78433 lineto
stroke
newpath
85503 78838.1 moveto
85098 78433 lineto
stroke
newpath
89148.6 73774.8 moveto
89553.7 73369.7 lineto
stroke
newpath
89553.7 73774.8 moveto
89148.6 73369.7 lineto
stroke
newpath
89148.6 71749.5 moveto
89553.7 71344.4 lineto
stroke
newpath
89553.7 71749.5 moveto
89148.6 71344.4 lineto
stroke
newpath
89148.6 69724.1 moveto
89553.7 69319.1 lineto
stroke
newpath
89553.7 69724.1 moveto
89148.6 69319.1 lineto
stroke
newpath
89148.6 67698.8 moveto
89553.7 67293.7 lineto
stroke
newpath
89553.7 67698.8 moveto
89148.6 67293.7 lineto
stroke
newpath
89148.6 65673.5 moveto
89553.7 65268.4 lineto
stroke
newpath
89553.7 65673.5 moveto
89148.6 65268.4 lineto
stroke
newpath
89148.6 63648.2 moveto
89553.7 63243.1 lineto
stroke
newpath
89553.7 63648.2 moveto
89148.6 63243.1 lineto
stroke
newpath
89148.6 61622.8 moveto
89553.7 61217.8 lineto
stroke
newpath
89553.7 61622.8 moveto
89148.6 61217.8 lineto
stroke
newpath
89148.6 59597.5 moveto
89553.7 59192.5 lineto
stroke
newpath
89553.7 59597.5 moveto
89148.6 59192.5 lineto
stroke
newpath
89148.6 57572.2 moveto
89553.7 57167.1 lineto
stroke
newpath
89553.7 57572.2 moveto
89148.6 57167.1 lineto
stroke
newpath
89148.6 55546.9 moveto
89553.7 55141.8 lineto
stroke
newpath
89553.7 55546.9 moveto
89148.6 55141.8 lineto
stroke
newpath
89148.6 53521.6 moveto
89553.7 53116.5 lineto
stroke
newpath
89553.7 53521.6 moveto
89148.6 53116.5 lineto
stroke
newpath
89148.6 51496.2 moveto
89553.7 51091.2 lineto
stroke
newpath
89553.7 51496.2 moveto
89148.6 51091.2 lineto
stroke
newpath
89148.6 49470.9 moveto
89553.7 49065.9 lineto
stroke
newpath
89553.7 49470.9 moveto
89148.6 49065.9 lineto
stroke
newpath
89148.6 47445.6 moveto
89553.7 47040.5 lineto
stroke
newpath
89553.7 47445.6 moveto
89148.6 47040.5 lineto
stroke
newpath
89148.6 45420.3 moveto
89553.7 45015.2 lineto
stroke
newpath
89553.7 45420.3 moveto
89148.6 45015.2 lineto
stroke
newpath
89148.6 43395 moveto
89553.7 42989.9 lineto
stroke
newpath
89553.7 43395 moveto
89148.6 42989.9 lineto
stroke
newpath
89148.6 41369.6 moveto
89553.7 40964.6 lineto
stroke
newpath
89553.7 41369.6 moveto
89148.6 40964.6 lineto
stroke
81.0128 setlinewidth
39654.8 51810.2 405.064 cir0
39654.8 44093.7 405.064 cir0
42227 51810.2 405.064 cir0
42227 44093.7 405.064 cir0
44799.1 51810.2 405.064 cir0
44799.1 44093.7 405.064 cir0
47371.3 51810.2 405.064 cir0
47371.3 44093.7 405.064 cir0
101.266 setlinewidth
newpath
30758.9 63754.5 moveto
30758.9 62741.8 lineto
stroke
newpath
30252.6 63248.2 moveto
31265.3 63248.2 lineto
stroke
newpath
30758.9 60949.4 moveto
30758.9 59936.8 lineto
stroke
newpath
30252.6 60443.1 moveto
31265.3 60443.1 lineto
stroke
newpath
30758.9 58144.4 moveto
30758.9 57131.7 lineto
stroke
newpath
30252.6 57638 moveto
31265.3 57638 lineto
stroke
newpath
30758.9 55339.3 moveto
30758.9 54326.6 lineto
stroke
newpath
30252.6 54833 moveto
31265.3 54833 lineto
stroke
newpath
31933.3 40498.7 moveto
31933.3 39486.1 lineto
stroke
newpath
31427 39992.4 moveto
32439.6 39992.4 lineto
stroke
newpath
31933.3 37926.6 moveto
31933.3 36913.9 lineto
stroke
newpath
31427 37420.3 moveto
32439.6 37420.3 lineto
stroke
newpath
33634.9 65157 moveto
33634.9 64144.4 lineto
stroke
newpath
33128.6 64650.7 moveto
34141.2 64650.7 lineto
stroke
newpath
33634.9 62352 moveto
33634.9 61339.3 lineto
stroke
newpath
33128.6 61845.6 moveto
34141.2 61845.6 lineto
stroke
newpath
33634.9 59546.9 moveto
33634.9 58534.2 lineto
stroke
newpath
33128.6 59040.6 moveto
34141.2 59040.6 lineto
stroke
newpath
33634.9 56741.8 moveto
33634.9 55729.2 lineto
stroke
newpath
33128.6 56235.5 moveto
34141.2 56235.5 lineto
stroke
newpath
33634.9 53936.8 moveto
33634.9 52924.1 lineto
stroke
newpath
33128.6 53430.4 moveto
34141.2 53430.4 lineto
stroke
newpath
34505.5 40498.7 moveto
34505.5 39486.1 lineto
stroke
newpath
33999.1 39992.4 moveto
35011.8 39992.4 lineto
stroke
newpath
34505.5 37926.6 moveto
34505.5 36913.9 lineto
stroke
newpath
33999.1 37420.3 moveto
35011.8 37420.3 lineto
stroke
newpath
37077.6 40498.7 moveto
37077.6 39486.1 lineto
stroke
newpath
36571.3 39992.4 moveto
37583.9 39992.4 lineto
stroke
newpath
37077.6 37926.6 moveto
37077.6 36913.9 lineto
stroke
newpath
36571.3 37420.3 moveto
37583.9 37420.3 lineto
stroke
newpath
39649.8 40498.7 moveto
39649.8 39486.1 lineto
stroke
newpath
39143.4 39992.4 moveto
40156.1 39992.4 lineto
stroke
newpath
39649.8 37926.6 moveto
39649.8 36913.9 lineto
stroke
newpath
39143.4 37420.3 moveto
40156.1 37420.3 lineto
stroke
newpath
42221.9 40498.7 moveto
42221.9 39486.1 lineto
stroke
newpath
41715.6 39992.4 moveto
42728.3 39992.4 lineto
stroke
newpath
42221.9 37926.6 moveto
42221.9 36913.9 lineto
stroke
newpath
41715.6 37420.3 moveto
42728.3 37420.3 lineto
stroke
newpath
44794.1 40498.7 moveto
44794.1 39486.1 lineto
stroke
newpath
44287.8 39992.4 moveto
45300.4 39992.4 lineto
stroke
newpath
44794.1 37926.6 moveto
44794.1 36913.9 lineto
stroke
newpath
44287.8 37420.3 moveto
45300.4 37420.3 lineto
stroke
newpath
47366.2 40498.7 moveto
47366.2 39486.1 lineto
stroke
newpath
46859.9 39992.4 moveto
47872.6 39992.4 lineto
stroke
newpath
47366.2 37926.6 moveto
47366.2 36913.9 lineto
stroke
newpath
46859.9 37420.3 moveto
47872.6 37420.3 lineto
stroke
newpath
49938.4 40498.7 moveto
49938.4 39486.1 lineto
stroke
newpath
49432.1 39992.4 moveto
50444.7 39992.4 lineto
stroke
newpath
49938.4 37926.6 moveto
49938.4 36913.9 lineto
stroke
newpath
49432.1 37420.3 moveto
50444.7 37420.3 lineto
stroke
newpath
52510.6 40498.7 moveto
52510.6 39486.1 lineto
stroke
newpath
52004.2 39992.4 moveto
53016.9 39992.4 lineto
stroke
newpath
52510.6 37926.6 moveto
52510.6 36913.9 lineto
stroke
newpath
52004.2 37420.3 moveto
53016.9 37420.3 lineto
stroke
newpath
54530.8 59567.1 moveto
54530.8 58554.5 lineto
stroke
newpath
54024.5 59060.8 moveto
55037.1 59060.8 lineto
stroke
newpath
54530.8 56995 moveto
54530.8 55982.3 lineto
stroke
newpath
54024.5 56488.7 moveto
55037.1 56488.7 lineto
stroke
newpath
54530.8 54422.8 moveto
54530.8 53410.2 lineto
stroke
newpath
54024.5 53916.5 moveto
55037.1 53916.5 lineto
stroke
newpath
54530.8 51850.7 moveto
54530.8 50838 lineto
stroke
newpath
54024.5 51344.3 moveto
55037.1 51344.3 lineto
stroke
newpath
54530.8 49278.5 moveto
54530.8 48265.9 lineto
stroke
newpath
54024.5 48772.2 moveto
55037.1 48772.2 lineto
stroke
newpath
55082.7 40498.7 moveto
55082.7 39486.1 lineto
stroke
newpath
54576.4 39992.4 moveto
55589 39992.4 lineto
stroke
newpath
55082.7 37926.6 moveto
55082.7 36913.9 lineto
stroke
newpath
54576.4 37420.3 moveto
55589 37420.3 lineto
stroke
newpath
57654.9 40498.7 moveto
57654.9 39486.1 lineto
stroke
newpath
57148.5 39992.4 moveto
58161.2 39992.4 lineto
stroke
newpath
57654.9 37926.6 moveto
57654.9 36913.9 lineto
stroke
newpath
57148.5 37420.3 moveto
58161.2 37420.3 lineto
stroke
newpath
60227 40498.7 moveto
60227 39486.1 lineto
stroke
newpath
59720.7 39992.4 moveto
60733.4 39992.4 lineto
stroke
newpath
60227 37926.6 moveto
60227 36913.9 lineto
stroke
newpath
59720.7 37420.3 moveto
60733.4 37420.3 lineto
stroke
newpath
62146 59567.1 moveto
62146 58554.5 lineto
stroke
newpath
61639.7 59060.8 moveto
62652.4 59060.8 lineto
stroke
newpath
62146 56995 moveto
62146 55982.3 lineto
stroke
newpath
61639.7 56488.7 moveto
62652.4 56488.7 lineto
stroke
newpath
62146 54422.8 moveto
62146 53410.2 lineto
stroke
newpath
61639.7 53916.5 moveto
62652.4 53916.5 lineto
stroke
newpath
62146 51850.7 moveto
62146 50838 lineto
stroke
newpath
61639.7 51344.3 moveto
62652.4 51344.3 lineto
stroke
newpath
62146 49278.5 moveto
62146 48265.9 lineto
stroke
newpath
61639.7 48772.2 moveto
62652.4 48772.2 lineto
stroke
newpath
62799.2 40498.7 moveto
62799.2 39486.1 lineto
stroke
newpath
62292.9 39992.4 moveto
63305.5 39992.4 lineto
stroke
newpath
62799.2 37926.6 moveto
62799.2 36913.9 lineto
stroke
newpath
62292.9 37420.3 moveto
63305.5 37420.3 lineto
stroke
newpath
65371.3 40498.7 moveto
65371.3 39486.1 lineto
stroke
newpath
64865 39992.4 moveto
65877.7 39992.4 lineto
stroke
newpath
65371.3 37926.6 moveto
65371.3 36913.9 lineto
stroke
newpath
64865 37420.3 moveto
65877.7 37420.3 lineto
stroke
newpath
66632.1 59567.1 moveto
66632.1 58554.5 lineto
stroke
newpath
66125.8 59060.8 moveto
67138.4 59060.8 lineto
stroke
newpath
66632.1 56995 moveto
66632.1 55982.3 lineto
stroke
newpath
66125.8 56488.7 moveto
67138.4 56488.7 lineto
stroke
newpath
66632.1 54422.8 moveto
66632.1 53410.2 lineto
stroke
newpath
66125.8 53916.5 moveto
67138.4 53916.5 lineto
stroke
newpath
66632.1 51850.7 moveto
66632.1 50838 lineto
stroke
newpath
66125.8 51344.3 moveto
67138.4 51344.3 lineto
stroke
newpath
66632.1 49278.5 moveto
66632.1 48265.9 lineto
stroke
newpath
66125.8 48772.2 moveto
67138.4 48772.2 lineto
stroke
newpath
67943.5 40498.7 moveto
67943.5 39486.1 lineto
stroke
newpath
67437.2 39992.4 moveto
68449.8 39992.4 lineto
stroke
newpath
67943.5 37926.6 moveto
67943.5 36913.9 lineto
stroke
newpath
67437.2 37420.3 moveto
68449.8 37420.3 lineto
stroke
newpath
70515.7 40498.7 moveto
70515.7 39486.1 lineto
stroke
newpath
70009.3 39992.4 moveto
71022 39992.4 lineto
stroke
newpath
70515.7 37926.6 moveto
70515.7 36913.9 lineto
stroke
newpath
70009.3 37420.3 moveto
71022 37420.3 lineto
stroke
newpath
73087.8 40498.7 moveto
73087.8 39486.1 lineto
stroke
newpath
72581.5 39992.4 moveto
73594.1 39992.4 lineto
stroke
newpath
73087.8 37926.6 moveto
73087.8 36913.9 lineto
stroke
newpath
72581.5 37420.3 moveto
73594.1 37420.3 lineto
stroke
newpath
74247.3 59567.1 moveto
74247.3 58554.5 lineto
stroke
newpath
73741 59060.8 moveto
74753.6 59060.8 lineto
stroke
newpath
74247.3 56995 moveto
74247.3 55982.3 lineto
stroke
newpath
73741 56488.7 moveto
74753.6 56488.7 lineto
stroke
newpath
74247.3 54422.8 moveto
74247.3 53410.2 lineto
stroke
newpath
73741 53916.5 moveto
74753.6 53916.5 lineto
stroke
newpath
74247.3 51850.7 moveto
74247.3 50838 lineto
stroke
newpath
73741 51344.3 moveto
74753.6 51344.3 lineto
stroke
newpath
74247.3 49278.5 moveto
74247.3 48265.9 lineto
stroke
newpath
73741 48772.2 moveto
74753.6 48772.2 lineto
stroke
newpath
75660 40498.7 moveto
75660 39486.1 lineto
stroke
newpath
75153.6 39992.4 moveto
76166.3 39992.4 lineto
stroke
newpath
75660 37926.6 moveto
75660 36913.9 lineto
stroke
newpath
75153.6 37420.3 moveto
76166.3 37420.3 lineto
stroke
newpath
78232.1 40498.7 moveto
78232.1 39486.1 lineto
stroke
newpath
77725.8 39992.4 moveto
78738.5 39992.4 lineto
stroke
newpath
78232.1 37926.6 moveto
78232.1 36913.9 lineto
stroke
newpath
77725.8 37420.3 moveto
78738.5 37420.3 lineto
stroke
newpath
80804.3 40498.7 moveto
80804.3 39486.1 lineto
stroke
newpath
80298 39992.4 moveto
81310.6 39992.4 lineto
stroke
newpath
80804.3 37926.6 moveto
80804.3 36913.9 lineto
stroke
newpath
80298 37420.3 moveto
81310.6 37420.3 lineto
stroke
newpath
83376.4 40498.7 moveto
83376.4 39486.1 lineto
stroke
newpath
82870.1 39992.4 moveto
83882.8 39992.4 lineto
stroke
newpath
83376.4 37926.6 moveto
83376.4 36913.9 lineto
stroke
newpath
82870.1 37420.3 moveto
83882.8 37420.3 lineto
stroke
324.051 setlinewidth
newpath
34476.8 70553.1 moveto
34476.8 72844.5 lineto
32185.4 72844.5 lineto
32185.4 70553.1 lineto
34476.8 70553.1 lineto
poly0
newpath
34476.8 45236.6 moveto
34476.8 47528 lineto
32185.4 47528 lineto
32185.4 45236.6 lineto
34476.8 45236.6 lineto
poly0
202.532 setlinewidth
78.7404 setlinewidth
0 0 0 setrgbcolor
0 0 0 setrgbcolor
newpath
26517.1 33818.2 moveto
26517.1 34605.6 lineto
26704.6 34605.6 lineto
26817.1 34568.1 lineto
26892.1 34493.1 lineto
26929.6 34418.1 lineto
26967.1 34268.1 lineto
26967.1 34155.6 lineto
26929.6 34005.6 lineto
26892.1 33930.6 lineto
26817.1 33855.7 lineto
26704.6 33818.2 lineto
26517.1 33818.2 lineto
stroke
newpath
27304.5 33818.2 moveto
27304.5 34343.1 lineto
stroke
newpath
27304.5 34193.1 moveto
27342 34268.1 lineto
27379.5 34305.6 lineto
27454.5 34343.1 lineto
27529.5 34343.1 lineto
stroke
newpath
27792 33818.2 moveto
27792 34343.1 lineto
stroke
newpath
27792 34605.6 moveto
27754.5 34568.1 lineto
27792 34530.6 lineto
27829.5 34568.1 lineto
27792 34605.6 lineto
27792 34530.6 lineto
stroke
newpath
28279.4 33818.2 moveto
28204.4 33855.7 lineto
28166.9 33930.6 lineto
28166.9 34605.6 lineto
stroke
newpath
28691.9 33818.2 moveto
28616.9 33855.7 lineto
28579.4 33930.6 lineto
28579.4 34605.6 lineto
stroke
newpath
29591.8 33818.2 moveto
29591.8 34605.6 lineto
29854.2 34043.1 lineto
30116.7 34605.6 lineto
30116.7 33818.2 lineto
stroke
newpath
30829.1 33818.2 moveto
30829.1 34230.6 lineto
30791.6 34305.6 lineto
30716.6 34343.1 lineto
30566.6 34343.1 lineto
30491.6 34305.6 lineto
stroke
newpath
30829.1 33855.7 moveto
30754.1 33818.2 lineto
30566.6 33818.2 lineto
30491.6 33855.7 lineto
30454.2 33930.6 lineto
30454.2 34005.6 lineto
30491.6 34080.6 lineto
30566.6 34118.1 lineto
30754.1 34118.1 lineto
30829.1 34155.6 lineto
stroke
newpath
31204.1 34343.1 moveto
31204.1 33555.7 lineto
stroke
newpath
31204.1 34305.6 moveto
31279 34343.1 lineto
31429 34343.1 lineto
31504 34305.6 lineto
31541.5 34268.1 lineto
31579 34193.1 lineto
31579 33968.1 lineto
31541.5 33893.1 lineto
31504 33855.7 lineto
31429 33818.2 lineto
31279 33818.2 lineto
31204.1 33855.7 lineto
stroke
newpath
31916.5 33893.1 moveto
31954 33855.7 lineto
31916.5 33818.2 lineto
31879 33855.7 lineto
31916.5 33893.1 lineto
31916.5 33818.2 lineto
stroke
newpath
31916.5 34305.6 moveto
31954 34268.1 lineto
31916.5 34230.6 lineto
31879 34268.1 lineto
31916.5 34305.6 lineto
31916.5 34230.6 lineto
stroke
40.5064 setlinewidth
newpath
25097.8 32723.4 moveto
25502.9 32318.3 lineto
stroke
newpath
25502.9 32723.4 moveto
25097.8 32318.3 lineto
stroke
202.532 setlinewidth
78.7404 setlinewidth
0 0 0 setrgbcolor
0 0 0 setrgbcolor
newpath
26667.1 32952 moveto
26742.1 32952 lineto
26817.1 32914.5 lineto
26854.6 32877 lineto
26892.1 32802 lineto
26929.6 32652.1 lineto
26929.6 32464.6 lineto
26892.1 32314.6 lineto
26854.6 32239.6 lineto
26817.1 32202.1 lineto
26742.1 32164.6 lineto
26667.1 32164.6 lineto
26592.1 32202.1 lineto
26554.6 32239.6 lineto
26517.1 32314.6 lineto
26479.7 32464.6 lineto
26479.7 32652.1 lineto
26517.1 32802 lineto
26554.6 32877 lineto
26592.1 32914.5 lineto
26667.1 32952 lineto
stroke
newpath
27267.1 32239.6 moveto
27304.5 32202.1 lineto
27267.1 32164.6 lineto
27229.6 32202.1 lineto
27267.1 32239.6 lineto
27267.1 32164.6 lineto
stroke
newpath
27979.5 32689.5 moveto
27979.5 32164.6 lineto
stroke
newpath
27792 32989.5 moveto
27604.5 32427.1 lineto
28091.9 32427.1 lineto
stroke
newpath
28541.9 32952 moveto
28616.9 32952 lineto
28691.9 32914.5 lineto
28729.4 32877 lineto
28766.9 32802 lineto
28804.4 32652.1 lineto
28804.4 32464.6 lineto
28766.9 32314.6 lineto
28729.4 32239.6 lineto
28691.9 32202.1 lineto
28616.9 32164.6 lineto
28541.9 32164.6 lineto
28466.9 32202.1 lineto
28429.4 32239.6 lineto
28391.9 32314.6 lineto
28354.4 32464.6 lineto
28354.4 32652.1 lineto
28391.9 32802 lineto
28429.4 32877 lineto
28466.9 32914.5 lineto
28541.9 32952 lineto
stroke
newpath
29291.8 32952 moveto
29366.8 32952 lineto
29441.8 32914.5 lineto
29479.3 32877 lineto
29516.8 32802 lineto
29554.3 32652.1 lineto
29554.3 32464.6 lineto
29516.8 32314.6 lineto
29479.3 32239.6 lineto
29441.8 32202.1 lineto
29366.8 32164.6 lineto
29291.8 32164.6 lineto
29216.8 32202.1 lineto
29179.3 32239.6 lineto
29141.8 32314.6 lineto
29104.3 32464.6 lineto
29104.3 32652.1 lineto
29141.8 32802 lineto
29179.3 32877 lineto
29216.8 32914.5 lineto
29291.8 32952 lineto
stroke
newpath
29891.7 32164.6 moveto
29891.7 32689.5 lineto
stroke
newpath
29891.7 32614.6 moveto
29929.2 32652.1 lineto
30004.2 32689.5 lineto
30116.7 32689.5 lineto
30191.7 32652.1 lineto
30229.2 32577.1 lineto
30229.2 32164.6 lineto
stroke
newpath
30229.2 32577.1 moveto
30266.7 32652.1 lineto
30341.7 32689.5 lineto
30454.2 32689.5 lineto
30529.1 32652.1 lineto
30566.6 32577.1 lineto
30566.6 32164.6 lineto
stroke
newpath
30941.6 32164.6 moveto
30941.6 32689.5 lineto
stroke
newpath
30941.6 32614.6 moveto
30979.1 32652.1 lineto
31054.1 32689.5 lineto
31166.6 32689.5 lineto
31241.6 32652.1 lineto
31279 32577.1 lineto
31279 32164.6 lineto
stroke
newpath
31279 32577.1 moveto
31316.5 32652.1 lineto
31391.5 32689.5 lineto
31504 32689.5 lineto
31579 32652.1 lineto
31616.5 32577.1 lineto
31616.5 32164.6 lineto
stroke
newpath
33153.8 32989.5 moveto
32478.9 31977.1 lineto
stroke
newpath
34166.2 32952 moveto
34241.2 32952 lineto
34316.2 32914.5 lineto
34353.7 32877 lineto
34391.2 32802 lineto
34428.7 32652.1 lineto
34428.7 32464.6 lineto
34391.2 32314.6 lineto
34353.7 32239.6 lineto
34316.2 32202.1 lineto
34241.2 32164.6 lineto
34166.2 32164.6 lineto
34091.2 32202.1 lineto
34053.7 32239.6 lineto
34016.2 32314.6 lineto
33978.7 32464.6 lineto
33978.7 32652.1 lineto
34016.2 32802 lineto
34053.7 32877 lineto
34091.2 32914.5 lineto
34166.2 32952 lineto
stroke
newpath
34766.1 32239.6 moveto
34803.6 32202.1 lineto
34766.1 32164.6 lineto
34728.6 32202.1 lineto
34766.1 32239.6 lineto
34766.1 32164.6 lineto
stroke
newpath
35291 32952 moveto
35366 32952 lineto
35441 32914.5 lineto
35478.5 32877 lineto
35516 32802 lineto
35553.5 32652.1 lineto
35553.5 32464.6 lineto
35516 32314.6 lineto
35478.5 32239.6 lineto
35441 32202.1 lineto
35366 32164.6 lineto
35291 32164.6 lineto
35216.1 32202.1 lineto
35178.6 32239.6 lineto
35141.1 32314.6 lineto
35103.6 32464.6 lineto
35103.6 32652.1 lineto
35141.1 32802 lineto
35178.6 32877 lineto
35216.1 32914.5 lineto
35291 32952 lineto
stroke
newpath
36303.4 32164.6 moveto
35853.5 32164.6 lineto
stroke
newpath
36078.4 32164.6 moveto
36078.4 32952 lineto
36003.5 32839.5 lineto
35928.5 32764.5 lineto
35853.5 32727 lineto
stroke
newpath
37015.8 32952 moveto
36640.9 32952 lineto
36603.4 32577.1 lineto
36640.9 32614.6 lineto
36715.9 32652.1 lineto
36903.3 32652.1 lineto
36978.3 32614.6 lineto
37015.8 32577.1 lineto
37053.3 32502.1 lineto
37053.3 32314.6 lineto
37015.8 32239.6 lineto
36978.3 32202.1 lineto
36903.3 32164.6 lineto
36715.9 32164.6 lineto
36640.9 32202.1 lineto
36603.4 32239.6 lineto
stroke
newpath
37315.8 32952 moveto
37840.7 32952 lineto
37503.3 32164.6 lineto
stroke
newpath
38103.2 32952 moveto
38103.2 32802 lineto
stroke
newpath
38403.2 32952 moveto
38403.2 32802 lineto
stroke
newpath
39565.5 31864.7 moveto
39528 31902.1 lineto
39453 32014.6 lineto
39415.5 32089.6 lineto
39378 32202.1 lineto
39340.5 32389.6 lineto
39340.5 32539.6 lineto
39378 32727 lineto
39415.5 32839.5 lineto
39453 32914.5 lineto
39528 33027 lineto
39565.5 33064.5 lineto
stroke
newpath
40240.4 32952 moveto
39865.5 32952 lineto
39828 32577.1 lineto
39865.5 32614.6 lineto
39940.5 32652.1 lineto
40127.9 32652.1 lineto
40202.9 32614.6 lineto
40240.4 32577.1 lineto
40277.9 32502.1 lineto
40277.9 32314.6 lineto
40240.4 32239.6 lineto
40202.9 32202.1 lineto
40127.9 32164.6 lineto
39940.5 32164.6 lineto
39865.5 32202.1 lineto
39828 32239.6 lineto
stroke
newpath
40952.8 32689.5 moveto
40952.8 32164.6 lineto
stroke
newpath
40765.4 32989.5 moveto
40577.9 32427.1 lineto
41065.3 32427.1 lineto
stroke
newpath
41965.2 32164.6 moveto
41965.2 32952 lineto
stroke
newpath
42302.7 32164.6 moveto
42302.7 32577.1 lineto
42265.2 32652.1 lineto
42190.2 32689.5 lineto
42077.7 32689.5 lineto
42002.7 32652.1 lineto
41965.2 32614.6 lineto
stroke
newpath
42790.1 32164.6 moveto
42715.1 32202.1 lineto
42677.6 32239.6 lineto
42640.1 32314.6 lineto
42640.1 32539.6 lineto
42677.6 32614.6 lineto
42715.1 32652.1 lineto
42790.1 32689.5 lineto
42902.6 32689.5 lineto
42977.6 32652.1 lineto
43015.1 32614.6 lineto
43052.6 32539.6 lineto
43052.6 32314.6 lineto
43015.1 32239.6 lineto
42977.6 32202.1 lineto
42902.6 32164.6 lineto
42790.1 32164.6 lineto
stroke
newpath
43502.5 32164.6 moveto
43427.5 32202.1 lineto
43390 32277.1 lineto
43390 32952 lineto
stroke
newpath
44102.4 32202.1 moveto
44027.5 32164.6 lineto
43877.5 32164.6 lineto
43802.5 32202.1 lineto
43765 32277.1 lineto
43765 32577.1 lineto
43802.5 32652.1 lineto
43877.5 32689.5 lineto
44027.5 32689.5 lineto
44102.4 32652.1 lineto
44139.9 32577.1 lineto
44139.9 32502.1 lineto
43765 32427.1 lineto
stroke
newpath
44439.9 32202.1 moveto
44514.9 32164.6 lineto
44664.9 32164.6 lineto
44739.9 32202.1 lineto
44777.4 32277.1 lineto
44777.4 32314.6 lineto
44739.9 32389.6 lineto
44664.9 32427.1 lineto
44552.4 32427.1 lineto
44477.4 32464.6 lineto
44439.9 32539.6 lineto
44439.9 32577.1 lineto
44477.4 32652.1 lineto
44552.4 32689.5 lineto
44664.9 32689.5 lineto
44739.9 32652.1 lineto
stroke
newpath
45039.8 31864.7 moveto
45077.3 31902.1 lineto
45152.3 32014.6 lineto
45189.8 32089.6 lineto
45227.3 32202.1 lineto
45264.8 32389.6 lineto
45264.8 32539.6 lineto
45227.3 32727 lineto
45189.8 32839.5 lineto
45152.3 32914.5 lineto
45077.3 33027 lineto
45039.8 33064.5 lineto
stroke
78.7394 setlinewidth
25109.2 31481.4 393.7 cir0
202.532 setlinewidth
78.7404 setlinewidth
0 0 0 setrgbcolor
0 0 0 setrgbcolor
newpath
26667.1 31912.6 moveto
26742.1 31912.6 lineto
26817.1 31875.1 lineto
26854.6 31837.7 lineto
26892.1 31762.7 lineto
26929.6 31612.7 lineto
26929.6 31425.2 lineto
26892.1 31275.2 lineto
26854.6 31200.2 lineto
26817.1 31162.7 lineto
26742.1 31125.2 lineto
26667.1 31125.2 lineto
26592.1 31162.7 lineto
26554.6 31200.2 lineto
26517.1 31275.2 lineto
26479.7 31425.2 lineto
26479.7 31612.7 lineto
26517.1 31762.7 lineto
26554.6 31837.7 lineto
26592.1 31875.1 lineto
26667.1 31912.6 lineto
stroke
newpath
27267.1 31200.2 moveto
27304.5 31162.7 lineto
27267.1 31125.2 lineto
27229.6 31162.7 lineto
27267.1 31200.2 lineto
27267.1 31125.2 lineto
stroke
newpath
27754.5 31575.2 moveto
27679.5 31612.7 lineto
27642 31650.2 lineto
27604.5 31725.2 lineto
27604.5 31762.7 lineto
27642 31837.7 lineto
27679.5 31875.1 lineto
27754.5 31912.6 lineto
27904.5 31912.6 lineto
27979.5 31875.1 lineto
28017 31837.7 lineto
28054.5 31762.7 lineto
28054.5 31725.2 lineto
28017 31650.2 lineto
27979.5 31612.7 lineto
27904.5 31575.2 lineto
27754.5 31575.2 lineto
27679.5 31537.7 lineto
27642 31500.2 lineto
27604.5 31425.2 lineto
27604.5 31275.2 lineto
27642 31200.2 lineto
27679.5 31162.7 lineto
27754.5 31125.2 lineto
27904.5 31125.2 lineto
27979.5 31162.7 lineto
28017 31200.2 lineto
28054.5 31275.2 lineto
28054.5 31425.2 lineto
28017 31500.2 lineto
27979.5 31537.7 lineto
27904.5 31575.2 lineto
stroke
newpath
28541.9 31912.6 moveto
28616.9 31912.6 lineto
28691.9 31875.1 lineto
28729.4 31837.7 lineto
28766.9 31762.7 lineto
28804.4 31612.7 lineto
28804.4 31425.2 lineto
28766.9 31275.2 lineto
28729.4 31200.2 lineto
28691.9 31162.7 lineto
28616.9 31125.2 lineto
28541.9 31125.2 lineto
28466.9 31162.7 lineto
28429.4 31200.2 lineto
28391.9 31275.2 lineto
28354.4 31425.2 lineto
28354.4 31612.7 lineto
28391.9 31762.7 lineto
28429.4 31837.7 lineto
28466.9 31875.1 lineto
28541.9 31912.6 lineto
stroke
newpath
29291.8 31912.6 moveto
29366.8 31912.6 lineto
29441.8 31875.1 lineto
29479.3 31837.7 lineto
29516.8 31762.7 lineto
29554.3 31612.7 lineto
29554.3 31425.2 lineto
29516.8 31275.2 lineto
29479.3 31200.2 lineto
29441.8 31162.7 lineto
29366.8 31125.2 lineto
29291.8 31125.2 lineto
29216.8 31162.7 lineto
29179.3 31200.2 lineto
29141.8 31275.2 lineto
29104.3 31425.2 lineto
29104.3 31612.7 lineto
29141.8 31762.7 lineto
29179.3 31837.7 lineto
29216.8 31875.1 lineto
29291.8 31912.6 lineto
stroke
newpath
29891.7 31125.2 moveto
29891.7 31650.2 lineto
stroke
newpath
29891.7 31575.2 moveto
29929.2 31612.7 lineto
30004.2 31650.2 lineto
30116.7 31650.2 lineto
30191.7 31612.7 lineto
30229.2 31537.7 lineto
30229.2 31125.2 lineto
stroke
newpath
30229.2 31537.7 moveto
30266.7 31612.7 lineto
30341.7 31650.2 lineto
30454.2 31650.2 lineto
30529.1 31612.7 lineto
30566.6 31537.7 lineto
30566.6 31125.2 lineto
stroke
newpath
30941.6 31125.2 moveto
30941.6 31650.2 lineto
stroke
newpath
30941.6 31575.2 moveto
30979.1 31612.7 lineto
31054.1 31650.2 lineto
31166.6 31650.2 lineto
31241.6 31612.7 lineto
31279 31537.7 lineto
31279 31125.2 lineto
stroke
newpath
31279 31537.7 moveto
31316.5 31612.7 lineto
31391.5 31650.2 lineto
31504 31650.2 lineto
31579 31612.7 lineto
31616.5 31537.7 lineto
31616.5 31125.2 lineto
stroke
newpath
33153.8 31950.1 moveto
32478.9 30937.8 lineto
stroke
newpath
34166.2 31912.6 moveto
34241.2 31912.6 lineto
34316.2 31875.1 lineto
34353.7 31837.7 lineto
34391.2 31762.7 lineto
34428.7 31612.7 lineto
34428.7 31425.2 lineto
34391.2 31275.2 lineto
34353.7 31200.2 lineto
34316.2 31162.7 lineto
34241.2 31125.2 lineto
34166.2 31125.2 lineto
34091.2 31162.7 lineto
34053.7 31200.2 lineto
34016.2 31275.2 lineto
33978.7 31425.2 lineto
33978.7 31612.7 lineto
34016.2 31762.7 lineto
34053.7 31837.7 lineto
34091.2 31875.1 lineto
34166.2 31912.6 lineto
stroke
newpath
34766.1 31200.2 moveto
34803.6 31162.7 lineto
34766.1 31125.2 lineto
34728.6 31162.7 lineto
34766.1 31200.2 lineto
34766.1 31125.2 lineto
stroke
newpath
35291 31912.6 moveto
35366 31912.6 lineto
35441 31875.1 lineto
35478.5 31837.7 lineto
35516 31762.7 lineto
35553.5 31612.7 lineto
35553.5 31425.2 lineto
35516 31275.2 lineto
35478.5 31200.2 lineto
35441 31162.7 lineto
35366 31125.2 lineto
35291 31125.2 lineto
35216.1 31162.7 lineto
35178.6 31200.2 lineto
35141.1 31275.2 lineto
35103.6 31425.2 lineto
35103.6 31612.7 lineto
35141.1 31762.7 lineto
35178.6 31837.7 lineto
35216.1 31875.1 lineto
35291 31912.6 lineto
stroke
newpath
35816 31912.6 moveto
36303.4 31912.6 lineto
36041 31612.7 lineto
36153.4 31612.7 lineto
36228.4 31575.2 lineto
36265.9 31537.7 lineto
36303.4 31462.7 lineto
36303.4 31275.2 lineto
36265.9 31200.2 lineto
36228.4 31162.7 lineto
36153.4 31125.2 lineto
35928.5 31125.2 lineto
35853.5 31162.7 lineto
35816 31200.2 lineto
stroke
newpath
37053.3 31125.2 moveto
36603.4 31125.2 lineto
stroke
newpath
36828.4 31125.2 moveto
36828.4 31912.6 lineto
36753.4 31800.2 lineto
36678.4 31725.2 lineto
36603.4 31687.7 lineto
stroke
newpath
37765.7 31912.6 moveto
37390.8 31912.6 lineto
37353.3 31537.7 lineto
37390.8 31575.2 lineto
37465.8 31612.7 lineto
37653.2 31612.7 lineto
37728.2 31575.2 lineto
37765.7 31537.7 lineto
37803.2 31462.7 lineto
37803.2 31275.2 lineto
37765.7 31200.2 lineto
37728.2 31162.7 lineto
37653.2 31125.2 lineto
37465.8 31125.2 lineto
37390.8 31162.7 lineto
37353.3 31200.2 lineto
stroke
newpath
38103.2 31912.6 moveto
38103.2 31762.7 lineto
stroke
newpath
38403.2 31912.6 moveto
38403.2 31762.7 lineto
stroke
newpath
39565.5 30825.3 moveto
39528 30862.8 lineto
39453 30975.3 lineto
39415.5 31050.3 lineto
39378 31162.7 lineto
39340.5 31350.2 lineto
39340.5 31500.2 lineto
39378 31687.7 lineto
39415.5 31800.2 lineto
39453 31875.1 lineto
39528 31987.6 lineto
39565.5 32025.1 lineto
stroke
newpath
39978 31575.2 moveto
39903 31612.7 lineto
39865.5 31650.2 lineto
39828 31725.2 lineto
39828 31762.7 lineto
39865.5 31837.7 lineto
39903 31875.1 lineto
39978 31912.6 lineto
40127.9 31912.6 lineto
40202.9 31875.1 lineto
40240.4 31837.7 lineto
40277.9 31762.7 lineto
40277.9 31725.2 lineto
40240.4 31650.2 lineto
40202.9 31612.7 lineto
40127.9 31575.2 lineto
39978 31575.2 lineto
39903 31537.7 lineto
39865.5 31500.2 lineto
39828 31425.2 lineto
39828 31275.2 lineto
39865.5 31200.2 lineto
39903 31162.7 lineto
39978 31125.2 lineto
40127.9 31125.2 lineto
40202.9 31162.7 lineto
40240.4 31200.2 lineto
40277.9 31275.2 lineto
40277.9 31425.2 lineto
40240.4 31500.2 lineto
40202.9 31537.7 lineto
40127.9 31575.2 lineto
stroke
newpath
41215.3 31125.2 moveto
41215.3 31912.6 lineto
stroke
newpath
41552.8 31125.2 moveto
41552.8 31537.7 lineto
41515.3 31612.7 lineto
41440.3 31650.2 lineto
41327.8 31650.2 lineto
41252.8 31612.7 lineto
41215.3 31575.2 lineto
stroke
newpath
42040.2 31125.2 moveto
41965.2 31162.7 lineto
41927.7 31200.2 lineto
41890.2 31275.2 lineto
41890.2 31500.2 lineto
41927.7 31575.2 lineto
41965.2 31612.7 lineto
42040.2 31650.2 lineto
42152.7 31650.2 lineto
42227.7 31612.7 lineto
42265.2 31575.2 lineto
42302.7 31500.2 lineto
42302.7 31275.2 lineto
42265.2 31200.2 lineto
42227.7 31162.7 lineto
42152.7 31125.2 lineto
42040.2 31125.2 lineto
stroke
newpath
42752.6 31125.2 moveto
42677.6 31162.7 lineto
42640.1 31237.7 lineto
42640.1 31912.6 lineto
stroke
newpath
43352.5 31162.7 moveto
43277.5 31125.2 lineto
43127.6 31125.2 lineto
43052.6 31162.7 lineto
43015.1 31237.7 lineto
43015.1 31537.7 lineto
43052.6 31612.7 lineto
43127.6 31650.2 lineto
43277.5 31650.2 lineto
43352.5 31612.7 lineto
43390 31537.7 lineto
43390 31462.7 lineto
43015.1 31387.7 lineto
stroke
newpath
43690 31162.7 moveto
43765 31125.2 lineto
43915 31125.2 lineto
43990 31162.7 lineto
44027.5 31237.7 lineto
44027.5 31275.2 lineto
43990 31350.2 lineto
43915 31387.7 lineto
43802.5 31387.7 lineto
43727.5 31425.2 lineto
43690 31500.2 lineto
43690 31537.7 lineto
43727.5 31612.7 lineto
43802.5 31650.2 lineto
43915 31650.2 lineto
43990 31612.7 lineto
stroke
newpath
44289.9 30825.3 moveto
44327.4 30862.8 lineto
44402.4 30975.3 lineto
44439.9 31050.3 lineto
44477.4 31162.7 lineto
44514.9 31350.2 lineto
44514.9 31500.2 lineto
44477.4 31687.7 lineto
44439.9 31800.2 lineto
44402.4 31875.1 lineto
44327.4 31987.6 lineto
44289.9 32025.1 lineto
stroke
78.7394 setlinewidth
newpath
25109.2 30615.3 moveto
25109.2 29827.9 lineto
stroke
newpath
24715.5 30221.6 moveto
25502.9 30221.6 lineto
stroke
202.532 setlinewidth
78.7404 setlinewidth
0 0 0 setrgbcolor
0 0 0 setrgbcolor
newpath
26929.6 29865.4 moveto
26479.7 29865.4 lineto
stroke
newpath
26704.6 29865.4 moveto
26704.6 30652.8 lineto
26629.6 30540.3 lineto
26554.6 30465.3 lineto
26479.7 30427.8 lineto
stroke
newpath
27267.1 29940.4 moveto
27304.5 29902.9 lineto
27267.1 29865.4 lineto
27229.6 29902.9 lineto
27267.1 29940.4 lineto
27267.1 29865.4 lineto
stroke
newpath
27792 30652.8 moveto
27867 30652.8 lineto
27942 30615.3 lineto
27979.5 30577.8 lineto
28017 30502.8 lineto
28054.5 30352.8 lineto
28054.5 30165.4 lineto
28017 30015.4 lineto
27979.5 29940.4 lineto
27942 29902.9 lineto
27867 29865.4 lineto
27792 29865.4 lineto
27717 29902.9 lineto
27679.5 29940.4 lineto
27642 30015.4 lineto
27604.5 30165.4 lineto
27604.5 30352.8 lineto
27642 30502.8 lineto
27679.5 30577.8 lineto
27717 30615.3 lineto
27792 30652.8 lineto
stroke
newpath
28541.9 30652.8 moveto
28616.9 30652.8 lineto
28691.9 30615.3 lineto
28729.4 30577.8 lineto
28766.9 30502.8 lineto
28804.4 30352.8 lineto
28804.4 30165.4 lineto
28766.9 30015.4 lineto
28729.4 29940.4 lineto
28691.9 29902.9 lineto
28616.9 29865.4 lineto
28541.9 29865.4 lineto
28466.9 29902.9 lineto
28429.4 29940.4 lineto
28391.9 30015.4 lineto
28354.4 30165.4 lineto
28354.4 30352.8 lineto
28391.9 30502.8 lineto
28429.4 30577.8 lineto
28466.9 30615.3 lineto
28541.9 30652.8 lineto
stroke
newpath
29291.8 30652.8 moveto
29366.8 30652.8 lineto
29441.8 30615.3 lineto
29479.3 30577.8 lineto
29516.8 30502.8 lineto
29554.3 30352.8 lineto
29554.3 30165.4 lineto
29516.8 30015.4 lineto
29479.3 29940.4 lineto
29441.8 29902.9 lineto
29366.8 29865.4 lineto
29291.8 29865.4 lineto
29216.8 29902.9 lineto
29179.3 29940.4 lineto
29141.8 30015.4 lineto
29104.3 30165.4 lineto
29104.3 30352.8 lineto
29141.8 30502.8 lineto
29179.3 30577.8 lineto
29216.8 30615.3 lineto
29291.8 30652.8 lineto
stroke
newpath
29891.7 29865.4 moveto
29891.7 30390.3 lineto
stroke
newpath
29891.7 30315.3 moveto
29929.2 30352.8 lineto
30004.2 30390.3 lineto
30116.7 30390.3 lineto
30191.7 30352.8 lineto
30229.2 30277.8 lineto
30229.2 29865.4 lineto
stroke
newpath
30229.2 30277.8 moveto
30266.7 30352.8 lineto
30341.7 30390.3 lineto
30454.2 30390.3 lineto
30529.1 30352.8 lineto
30566.6 30277.8 lineto
30566.6 29865.4 lineto
stroke
newpath
30941.6 29865.4 moveto
30941.6 30390.3 lineto
stroke
newpath
30941.6 30315.3 moveto
30979.1 30352.8 lineto
31054.1 30390.3 lineto
31166.6 30390.3 lineto
31241.6 30352.8 lineto
31279 30277.8 lineto
31279 29865.4 lineto
stroke
newpath
31279 30277.8 moveto
31316.5 30352.8 lineto
31391.5 30390.3 lineto
31504 30390.3 lineto
31579 30352.8 lineto
31616.5 30277.8 lineto
31616.5 29865.4 lineto
stroke
newpath
33153.8 30690.3 moveto
32478.9 29677.9 lineto
stroke
newpath
34166.2 30652.8 moveto
34241.2 30652.8 lineto
34316.2 30615.3 lineto
34353.7 30577.8 lineto
34391.2 30502.8 lineto
34428.7 30352.8 lineto
34428.7 30165.4 lineto
34391.2 30015.4 lineto
34353.7 29940.4 lineto
34316.2 29902.9 lineto
34241.2 29865.4 lineto
34166.2 29865.4 lineto
34091.2 29902.9 lineto
34053.7 29940.4 lineto
34016.2 30015.4 lineto
33978.7 30165.4 lineto
33978.7 30352.8 lineto
34016.2 30502.8 lineto
34053.7 30577.8 lineto
34091.2 30615.3 lineto
34166.2 30652.8 lineto
stroke
newpath
34766.1 29940.4 moveto
34803.6 29902.9 lineto
34766.1 29865.4 lineto
34728.6 29902.9 lineto
34766.1 29940.4 lineto
34766.1 29865.4 lineto
stroke
newpath
35291 30652.8 moveto
35366 30652.8 lineto
35441 30615.3 lineto
35478.5 30577.8 lineto
35516 30502.8 lineto
35553.5 30352.8 lineto
35553.5 30165.4 lineto
35516 30015.4 lineto
35478.5 29940.4 lineto
35441 29902.9 lineto
35366 29865.4 lineto
35291 29865.4 lineto
35216.1 29902.9 lineto
35178.6 29940.4 lineto
35141.1 30015.4 lineto
35103.6 30165.4 lineto
35103.6 30352.8 lineto
35141.1 30502.8 lineto
35178.6 30577.8 lineto
35216.1 30615.3 lineto
35291 30652.8 lineto
stroke
newpath
35816 30652.8 moveto
36303.4 30652.8 lineto
36041 30352.8 lineto
36153.4 30352.8 lineto
36228.4 30315.3 lineto
36265.9 30277.8 lineto
36303.4 30202.9 lineto
36303.4 30015.4 lineto
36265.9 29940.4 lineto
36228.4 29902.9 lineto
36153.4 29865.4 lineto
35928.5 29865.4 lineto
35853.5 29902.9 lineto
35816 29940.4 lineto
stroke
newpath
36678.4 29865.4 moveto
36828.4 29865.4 lineto
36903.3 29902.9 lineto
36940.8 29940.4 lineto
37015.8 30052.9 lineto
37053.3 30202.9 lineto
37053.3 30502.8 lineto
37015.8 30577.8 lineto
36978.3 30615.3 lineto
36903.3 30652.8 lineto
36753.4 30652.8 lineto
36678.4 30615.3 lineto
36640.9 30577.8 lineto
36603.4 30502.8 lineto
36603.4 30315.3 lineto
36640.9 30240.4 lineto
36678.4 30202.9 lineto
36753.4 30165.4 lineto
36903.3 30165.4 lineto
36978.3 30202.9 lineto
37015.8 30240.4 lineto
37053.3 30315.3 lineto
stroke
newpath
37728.2 30390.3 moveto
37728.2 29865.4 lineto
stroke
newpath
37540.8 30690.3 moveto
37353.3 30127.9 lineto
37840.7 30127.9 lineto
stroke
newpath
38103.2 30652.8 moveto
38103.2 30502.8 lineto
stroke
newpath
38403.2 30652.8 moveto
38403.2 30502.8 lineto
stroke
newpath
39565.5 29565.4 moveto
39528 29602.9 lineto
39453 29715.4 lineto
39415.5 29790.4 lineto
39378 29902.9 lineto
39340.5 30090.4 lineto
39340.5 30240.4 lineto
39378 30427.8 lineto
39415.5 30540.3 lineto
39453 30615.3 lineto
39528 30727.8 lineto
39565.5 30765.3 lineto
stroke
newpath
39790.5 30652.8 moveto
40315.4 30652.8 lineto
39978 29865.4 lineto
stroke
newpath
41027.8 29865.4 moveto
40577.9 29865.4 lineto
stroke
newpath
40802.9 29865.4 moveto
40802.9 30652.8 lineto
40727.9 30540.3 lineto
40652.9 30465.3 lineto
40577.9 30427.8 lineto
stroke
newpath
41965.2 29865.4 moveto
41965.2 30652.8 lineto
stroke
newpath
42302.7 29865.4 moveto
42302.7 30277.8 lineto
42265.2 30352.8 lineto
42190.2 30390.3 lineto
42077.7 30390.3 lineto
42002.7 30352.8 lineto
41965.2 30315.3 lineto
stroke
newpath
42790.1 29865.4 moveto
42715.1 29902.9 lineto
42677.6 29940.4 lineto
42640.1 30015.4 lineto
42640.1 30240.4 lineto
42677.6 30315.3 lineto
42715.1 30352.8 lineto
42790.1 30390.3 lineto
42902.6 30390.3 lineto
42977.6 30352.8 lineto
43015.1 30315.3 lineto
43052.6 30240.4 lineto
43052.6 30015.4 lineto
43015.1 29940.4 lineto
42977.6 29902.9 lineto
42902.6 29865.4 lineto
42790.1 29865.4 lineto
stroke
newpath
43502.5 29865.4 moveto
43427.5 29902.9 lineto
43390 29977.9 lineto
43390 30652.8 lineto
stroke
newpath
44102.4 29902.9 moveto
44027.5 29865.4 lineto
43877.5 29865.4 lineto
43802.5 29902.9 lineto
43765 29977.9 lineto
43765 30277.8 lineto
43802.5 30352.8 lineto
43877.5 30390.3 lineto
44027.5 30390.3 lineto
44102.4 30352.8 lineto
44139.9 30277.8 lineto
44139.9 30202.9 lineto
43765 30127.9 lineto
stroke
newpath
44439.9 29902.9 moveto
44514.9 29865.4 lineto
44664.9 29865.4 lineto
44739.9 29902.9 lineto
44777.4 29977.9 lineto
44777.4 30015.4 lineto
44739.9 30090.4 lineto
44664.9 30127.9 lineto
44552.4 30127.9 lineto
44477.4 30165.4 lineto
44439.9 30240.4 lineto
44439.9 30277.8 lineto
44477.4 30352.8 lineto
44552.4 30390.3 lineto
44664.9 30390.3 lineto
44739.9 30352.8 lineto
stroke
newpath
45039.8 29565.4 moveto
45077.3 29602.9 lineto
45152.3 29715.4 lineto
45189.8 29790.4 lineto
45227.3 29902.9 lineto
45264.8 30090.4 lineto
45264.8 30240.4 lineto
45227.3 30427.8 lineto
45189.8 30540.3 lineto
45152.3 30615.3 lineto
45077.3 30727.8 lineto
45039.8 30765.3 lineto
stroke
78.7394 setlinewidth
newpath
25387.6 28683.4 moveto
25387.6 29240.2 lineto
24830.8 29240.2 lineto
24830.8 28683.4 lineto
25387.6 28683.4 lineto
poly0
202.532 setlinewidth
78.7404 setlinewidth
0 0 0 setrgbcolor
0 0 0 setrgbcolor
newpath
26442.2 29393 moveto
26929.6 29393 lineto
26667.1 29093 lineto
26779.6 29093 lineto
26854.6 29055.5 lineto
26892.1 29018 lineto
26929.6 28943 lineto
26929.6 28755.5 lineto
26892.1 28680.6 lineto
26854.6 28643.1 lineto
26779.6 28605.6 lineto
26554.6 28605.6 lineto
26479.7 28643.1 lineto
26442.2 28680.6 lineto
stroke
newpath
27267.1 28680.6 moveto
27304.5 28643.1 lineto
27267.1 28605.6 lineto
27229.6 28643.1 lineto
27267.1 28680.6 lineto
27267.1 28605.6 lineto
stroke
newpath
27604.5 29318 moveto
27642 29355.5 lineto
27717 29393 lineto
27904.5 29393 lineto
27979.5 29355.5 lineto
28017 29318 lineto
28054.5 29243 lineto
28054.5 29168 lineto
28017 29055.5 lineto
27567 28605.6 lineto
28054.5 28605.6 lineto
stroke
newpath
28541.9 29393 moveto
28616.9 29393 lineto
28691.9 29355.5 lineto
28729.4 29318 lineto
28766.9 29243 lineto
28804.4 29093 lineto
28804.4 28905.5 lineto
28766.9 28755.5 lineto
28729.4 28680.6 lineto
28691.9 28643.1 lineto
28616.9 28605.6 lineto
28541.9 28605.6 lineto
28466.9 28643.1 lineto
28429.4 28680.6 lineto
28391.9 28755.5 lineto
28354.4 28905.5 lineto
28354.4 29093 lineto
28391.9 29243 lineto
28429.4 29318 lineto
28466.9 29355.5 lineto
28541.9 29393 lineto
stroke
newpath
29291.8 29393 moveto
29366.8 29393 lineto
29441.8 29355.5 lineto
29479.3 29318 lineto
29516.8 29243 lineto
29554.3 29093 lineto
29554.3 28905.5 lineto
29516.8 28755.5 lineto
29479.3 28680.6 lineto
29441.8 28643.1 lineto
29366.8 28605.6 lineto
29291.8 28605.6 lineto
29216.8 28643.1 lineto
29179.3 28680.6 lineto
29141.8 28755.5 lineto
29104.3 28905.5 lineto
29104.3 29093 lineto
29141.8 29243 lineto
29179.3 29318 lineto
29216.8 29355.5 lineto
29291.8 29393 lineto
stroke
newpath
29891.7 28605.6 moveto
29891.7 29130.5 lineto
stroke
newpath
29891.7 29055.5 moveto
29929.2 29093 lineto
30004.2 29130.5 lineto
30116.7 29130.5 lineto
30191.7 29093 lineto
30229.2 29018 lineto
30229.2 28605.6 lineto
stroke
newpath
30229.2 29018 moveto
30266.7 29093 lineto
30341.7 29130.5 lineto
30454.2 29130.5 lineto
30529.1 29093 lineto
30566.6 29018 lineto
30566.6 28605.6 lineto
stroke
newpath
30941.6 28605.6 moveto
30941.6 29130.5 lineto
stroke
newpath
30941.6 29055.5 moveto
30979.1 29093 lineto
31054.1 29130.5 lineto
31166.6 29130.5 lineto
31241.6 29093 lineto
31279 29018 lineto
31279 28605.6 lineto
stroke
newpath
31279 29018 moveto
31316.5 29093 lineto
31391.5 29130.5 lineto
31504 29130.5 lineto
31579 29093 lineto
31616.5 29018 lineto
31616.5 28605.6 lineto
stroke
newpath
33153.8 29430.5 moveto
32478.9 28418.1 lineto
stroke
newpath
34166.2 29393 moveto
34241.2 29393 lineto
34316.2 29355.5 lineto
34353.7 29318 lineto
34391.2 29243 lineto
34428.7 29093 lineto
34428.7 28905.5 lineto
34391.2 28755.5 lineto
34353.7 28680.6 lineto
34316.2 28643.1 lineto
34241.2 28605.6 lineto
34166.2 28605.6 lineto
34091.2 28643.1 lineto
34053.7 28680.6 lineto
34016.2 28755.5 lineto
33978.7 28905.5 lineto
33978.7 29093 lineto
34016.2 29243 lineto
34053.7 29318 lineto
34091.2 29355.5 lineto
34166.2 29393 lineto
stroke
newpath
34766.1 28680.6 moveto
34803.6 28643.1 lineto
34766.1 28605.6 lineto
34728.6 28643.1 lineto
34766.1 28680.6 lineto
34766.1 28605.6 lineto
stroke
newpath
35553.5 28605.6 moveto
35103.6 28605.6 lineto
stroke
newpath
35328.5 28605.6 moveto
35328.5 29393 lineto
35253.6 29280.5 lineto
35178.6 29205.5 lineto
35103.6 29168 lineto
stroke
newpath
35853.5 29318 moveto
35891 29355.5 lineto
35966 29393 lineto
36153.4 29393 lineto
36228.4 29355.5 lineto
36265.9 29318 lineto
36303.4 29243 lineto
36303.4 29168 lineto
36265.9 29055.5 lineto
35816 28605.6 lineto
36303.4 28605.6 lineto
stroke
newpath
36978.3 29393 moveto
36828.4 29393 lineto
36753.4 29355.5 lineto
36715.9 29318 lineto
36640.9 29205.5 lineto
36603.4 29055.5 lineto
36603.4 28755.5 lineto
36640.9 28680.6 lineto
36678.4 28643.1 lineto
36753.4 28605.6 lineto
36903.3 28605.6 lineto
36978.3 28643.1 lineto
37015.8 28680.6 lineto
37053.3 28755.5 lineto
37053.3 28943 lineto
37015.8 29018 lineto
36978.3 29055.5 lineto
36903.3 29093 lineto
36753.4 29093 lineto
36678.4 29055.5 lineto
36640.9 29018 lineto
36603.4 28943 lineto
stroke
newpath
37540.8 29393 moveto
37615.8 29393 lineto
37690.7 29355.5 lineto
37728.2 29318 lineto
37765.7 29243 lineto
37803.2 29093 lineto
37803.2 28905.5 lineto
37765.7 28755.5 lineto
37728.2 28680.6 lineto
37690.7 28643.1 lineto
37615.8 28605.6 lineto
37540.8 28605.6 lineto
37465.8 28643.1 lineto
37428.3 28680.6 lineto
37390.8 28755.5 lineto
37353.3 28905.5 lineto
37353.3 29093 lineto
37390.8 29243 lineto
37428.3 29318 lineto
37465.8 29355.5 lineto
37540.8 29393 lineto
stroke
newpath
38103.2 29393 moveto
38103.2 29243 lineto
stroke
newpath
38403.2 29393 moveto
38403.2 29243 lineto
stroke
newpath
39565.5 28305.6 moveto
39528 28343.1 lineto
39453 28455.6 lineto
39415.5 28530.6 lineto
39378 28643.1 lineto
39340.5 28830.5 lineto
39340.5 28980.5 lineto
39378 29168 lineto
39415.5 29280.5 lineto
39453 29355.5 lineto
39528 29468 lineto
39565.5 29505.4 lineto
stroke
newpath
39828 29318 moveto
39865.5 29355.5 lineto
39940.5 29393 lineto
40127.9 29393 lineto
40202.9 29355.5 lineto
40240.4 29318 lineto
40277.9 29243 lineto
40277.9 29168 lineto
40240.4 29055.5 lineto
39790.5 28605.6 lineto
40277.9 28605.6 lineto
stroke
newpath
41215.3 28605.6 moveto
41215.3 29393 lineto
stroke
newpath
41552.8 28605.6 moveto
41552.8 29018 lineto
41515.3 29093 lineto
41440.3 29130.5 lineto
41327.8 29130.5 lineto
41252.8 29093 lineto
41215.3 29055.5 lineto
stroke
newpath
42040.2 28605.6 moveto
41965.2 28643.1 lineto
41927.7 28680.6 lineto
41890.2 28755.5 lineto
41890.2 28980.5 lineto
41927.7 29055.5 lineto
41965.2 29093 lineto
42040.2 29130.5 lineto
42152.7 29130.5 lineto
42227.7 29093 lineto
42265.2 29055.5 lineto
42302.7 28980.5 lineto
42302.7 28755.5 lineto
42265.2 28680.6 lineto
42227.7 28643.1 lineto
42152.7 28605.6 lineto
42040.2 28605.6 lineto
stroke
newpath
42752.6 28605.6 moveto
42677.6 28643.1 lineto
42640.1 28718 lineto
42640.1 29393 lineto
stroke
newpath
43352.5 28643.1 moveto
43277.5 28605.6 lineto
43127.6 28605.6 lineto
43052.6 28643.1 lineto
43015.1 28718 lineto
43015.1 29018 lineto
43052.6 29093 lineto
43127.6 29130.5 lineto
43277.5 29130.5 lineto
43352.5 29093 lineto
43390 29018 lineto
43390 28943 lineto
43015.1 28868 lineto
stroke
newpath
43690 28643.1 moveto
43765 28605.6 lineto
43915 28605.6 lineto
43990 28643.1 lineto
44027.5 28718 lineto
44027.5 28755.5 lineto
43990 28830.5 lineto
43915 28868 lineto
43802.5 28868 lineto
43727.5 28905.5 lineto
43690 28980.5 lineto
43690 29018 lineto
43727.5 29093 lineto
43802.5 29130.5 lineto
43915 29130.5 lineto
43990 29093 lineto
stroke
newpath
44289.9 28305.6 moveto
44327.4 28343.1 lineto
44402.4 28455.6 lineto
44439.9 28530.6 lineto
44477.4 28643.1 lineto
44514.9 28830.5 lineto
44514.9 28980.5 lineto
44477.4 29168 lineto
44439.9 29280.5 lineto
44402.4 29355.5 lineto
44327.4 29468 lineto
44289.9 29505.4 lineto
stroke
showpage
grestore
%%EOF
